CZdL1x1 = 0.8261574074074074
CZdL3x3 = -0.8261574074074074
CZuL1x1 = 0.8261574074074074
CZuL3x3 = -0.8261574074074074
CZuR1x1 = 0.8261574074074074
CZuR3x3 = -0.8261574074074074
cotH = 3.5
mZp = 2333.333333333333
